0000.001 (0) Opened log file at time: Mon, 10 May 2021 12:33:16 +0000 on https://priceless.moebelkonfigurator.li
0000.002 (0) UpdraftPlus WordPress backup plugin (https://updraftplus.com): 1.16.56 WP: 5.7.1 PHP: 7.4.18 (cgi-fcgi, FreeBSD s3.server.hostpoint.ch 11.4-RELEASE-p9 FreeBSD 11.4-RELEASE-p9 #9 r369567M: Wed Apr  7 05:06:40 UTC 2021     root@fbsd-build01.adm.hostpoint.ch:/usr/obj/usr/src/sys/HOSTPOINT amd64) MySQL: 10.3.28-MariaDB-log WPLANG: de_CH Server: Apache safe_mode: 0 max_execution_time: 900 memory_limit: 256M (used: 11.8M | 2M) multisite: N openssl: OpenSSL 1.1.1k  25 Mar 2021 mcrypt: Y LANG:  ZipArchive::addFile: Y
0000.004 (0) Free space on disk containing Updraft's temporary directory: 2875107.5 MB
0000.009 (0) Tasks: Backup files: 1 (schedule: manual) Backup DB: 1 (schedule: manual)
0000.013 (0) Requesting semaphore lock (fd) (apparently not via scheduler)
0000.016 (0) Set semaphore last lock (fd) time to 2021-05-10 12:33:16
0000.017 (0) Semaphore lock (fd) complete
0000.021 (0) Backup run: resumption=0, nonce=b10284f5be11, file_nonce=b10284f5be11 begun at=1620649996 (0s ago), job type=backup
0000.023 (0) Scheduling a resumption (1) after 300 seconds (1620650296) in case this run gets aborted
0000.037 (0) Checking if we have a zip executable available
0000.038 (0) Testing: /usr/local/bin/zip
0000.053 (0) Output: zip warning: binziptest/test.zip not found or empty
0000.059 (0) Output: adding: binziptest/subdir1/	(in=0) (out=0) (stored 0%)
0000.061 (0) Output: adding: binziptest/subdir1/subdir2/	(in=0) (out=0) (stored 0%)
0000.062 (0) Output: adding: binziptest/subdir1/subdir2/test.html	(in=131) (out=107) (deflated 18%)
0000.064 (0) Output: total bytes=131, compressed=107 -> 18% savings
0000.105 (0) Output: adding: binziptest/subdir1/subdir2/test2.html	(in=138) (out=113) (deflated 18%)
0000.107 (0) Output: total bytes=269, compressed=220 -> 18% savings
0000.125 (0) Working binary zip found: /usr/local/bin/zip
0000.127 (0) Zip engine: found/will use a binary zip: /usr/local/bin/zip
0000.128 (0) Creation of backups of directories: beginning
0000.135 (0) Beginning creation of dump of plugins (split every: 400 MB)
0002.261 (0) Total entities for the zip file: 515 directories, 3240 files (0 skipped as non-modified), 61.9 MB
0002.361 (0) Zip: backup_2021-05-10-1433_Mbelkonfigurator_20_b10284f5be11-plugins.zip.tmp: 100 files added (on-disk size: 0 KB)
0002.450 (0) Zip: backup_2021-05-10-1433_Mbelkonfigurator_20_b10284f5be11-plugins.zip.tmp: 200 files added (on-disk size: 0 KB)
0002.551 (0) Zip: backup_2021-05-10-1433_Mbelkonfigurator_20_b10284f5be11-plugins.zip.tmp: 300 files added (on-disk size: 0 KB)
0002.639 (0) Zip: backup_2021-05-10-1433_Mbelkonfigurator_20_b10284f5be11-plugins.zip.tmp: 400 files added (on-disk size: 0 KB)
0002.728 (0) Zip: backup_2021-05-10-1433_Mbelkonfigurator_20_b10284f5be11-plugins.zip.tmp: 500 files added (on-disk size: 0 KB)
0002.832 (0) Zip: backup_2021-05-10-1433_Mbelkonfigurator_20_b10284f5be11-plugins.zip.tmp: 600 files added (on-disk size: 0 KB)
0002.863 (0) Adding batch to zip file (UpdraftPlus_BinZip): over 2.0 seconds have passed since the last write (20.2 MB, 634 (634) files added so far); re-opening (prior size: 0 KB)
0004.162 (0) backup_2021-05-10-1433_Mbelkonfigurator_20_b10284f5be11-plugins.zip.tmp: size is now: 14.80 MB
0004.215 (0) Zip: backup_2021-05-10-1433_Mbelkonfigurator_20_b10284f5be11-plugins.zip.tmp: 700 files added (on-disk size: 15175.4 KB)
0004.296 (0) Zip: backup_2021-05-10-1433_Mbelkonfigurator_20_b10284f5be11-plugins.zip.tmp: 800 files added (on-disk size: 15175.4 KB)
0004.387 (0) Zip: backup_2021-05-10-1433_Mbelkonfigurator_20_b10284f5be11-plugins.zip.tmp: 900 files added (on-disk size: 15175.4 KB)
0004.478 (0) Zip: backup_2021-05-10-1433_Mbelkonfigurator_20_b10284f5be11-plugins.zip.tmp: 1000 files added (on-disk size: 15175.4 KB)
0004.598 (0) Zip: backup_2021-05-10-1433_Mbelkonfigurator_20_b10284f5be11-plugins.zip.tmp: 1100 files added (on-disk size: 15175.4 KB)
0004.692 (0) Zip: backup_2021-05-10-1433_Mbelkonfigurator_20_b10284f5be11-plugins.zip.tmp: 1200 files added (on-disk size: 15175.4 KB)
0004.777 (0) Zip: backup_2021-05-10-1433_Mbelkonfigurator_20_b10284f5be11-plugins.zip.tmp: 1300 files added (on-disk size: 15175.4 KB)
0004.858 (0) Zip: backup_2021-05-10-1433_Mbelkonfigurator_20_b10284f5be11-plugins.zip.tmp: 1400 files added (on-disk size: 15175.4 KB)
0004.934 (0) Zip: backup_2021-05-10-1433_Mbelkonfigurator_20_b10284f5be11-plugins.zip.tmp: 1500 files added (on-disk size: 15175.4 KB)
0005.014 (0) Zip: backup_2021-05-10-1433_Mbelkonfigurator_20_b10284f5be11-plugins.zip.tmp: 1600 files added (on-disk size: 15175.4 KB)
0005.042 (0) Adding batch to zip file (UpdraftPlus_BinZip): over 1000 files added on this batch (11.4 MB, 3240 files batched, 1001 (1635) added so far); re-opening (prior size: 15175.4 KB)
0006.375 (0) backup_2021-05-10-1433_Mbelkonfigurator_20_b10284f5be11-plugins.zip.tmp: size is now: 18.70 MB
0006.419 (0) Zip: backup_2021-05-10-1433_Mbelkonfigurator_20_b10284f5be11-plugins.zip.tmp: 1700 files added (on-disk size: 19157 KB)
0006.485 (0) Zip: backup_2021-05-10-1433_Mbelkonfigurator_20_b10284f5be11-plugins.zip.tmp: 1800 files added (on-disk size: 19157 KB)
0006.551 (0) Zip: backup_2021-05-10-1433_Mbelkonfigurator_20_b10284f5be11-plugins.zip.tmp: 1900 files added (on-disk size: 19157 KB)
0006.617 (0) Zip: backup_2021-05-10-1433_Mbelkonfigurator_20_b10284f5be11-plugins.zip.tmp: 2000 files added (on-disk size: 19157 KB)
0006.683 (0) Zip: backup_2021-05-10-1433_Mbelkonfigurator_20_b10284f5be11-plugins.zip.tmp: 2100 files added (on-disk size: 19157 KB)
0006.751 (0) Zip: backup_2021-05-10-1433_Mbelkonfigurator_20_b10284f5be11-plugins.zip.tmp: 2200 files added (on-disk size: 19157 KB)
0006.818 (0) Zip: backup_2021-05-10-1433_Mbelkonfigurator_20_b10284f5be11-plugins.zip.tmp: 2300 files added (on-disk size: 19157 KB)
0006.891 (0) Zip: backup_2021-05-10-1433_Mbelkonfigurator_20_b10284f5be11-plugins.zip.tmp: 2400 files added (on-disk size: 19157 KB)
0006.962 (0) Zip: backup_2021-05-10-1433_Mbelkonfigurator_20_b10284f5be11-plugins.zip.tmp: 2500 files added (on-disk size: 19157 KB)
0006.977 (0) Adding batch to zip file (UpdraftPlus_BinZip): over 25 MB added on this batch (25.1 MB, 3240 files batched, 883 (2518) added so far); re-opening (prior size: 19157 KB)
0008.845 (0) backup_2021-05-10-1433_Mbelkonfigurator_20_b10284f5be11-plugins.zip.tmp: size is now: 25.30 MB
0008.848 (0) A useful amount of data was added after this amount of zip processing: 3 s (normalised: 3 s, rate: 8602.7 KB/s)
0008.851 (0) Performance is good - will increase the amount of data we attempt to batch (time=2.9855170249939, normalised_time=2.975798999757, max_time=8.8492119312286, data points known=1, old_max_bytes=26214400, new_max_bytes=52855182)
0008.911 (0) Zip: backup_2021-05-10-1433_Mbelkonfigurator_20_b10284f5be11-plugins.zip.tmp: 2600 files added (on-disk size: 25920.9 KB)
0008.987 (0) Zip: backup_2021-05-10-1433_Mbelkonfigurator_20_b10284f5be11-plugins.zip.tmp: 2700 files added (on-disk size: 25920.9 KB)
0009.064 (0) Zip: backup_2021-05-10-1433_Mbelkonfigurator_20_b10284f5be11-plugins.zip.tmp: 2800 files added (on-disk size: 25920.9 KB)
0009.136 (0) Zip: backup_2021-05-10-1433_Mbelkonfigurator_20_b10284f5be11-plugins.zip.tmp: 2900 files added (on-disk size: 25920.9 KB)
0009.206 (0) Zip: backup_2021-05-10-1433_Mbelkonfigurator_20_b10284f5be11-plugins.zip.tmp: 3000 files added (on-disk size: 25920.9 KB)
0009.284 (0) Zip: backup_2021-05-10-1433_Mbelkonfigurator_20_b10284f5be11-plugins.zip.tmp: 3100 files added (on-disk size: 25920.9 KB)
0009.360 (0) Zip: backup_2021-05-10-1433_Mbelkonfigurator_20_b10284f5be11-plugins.zip.tmp: 3200 files added (on-disk size: 25920.9 KB)
0010.624 (0) Created plugins zip (0) - 27670.2 KB in 10.5 s (2639.5 KB/s) (sha1: e64033a757af83d34f63a7fbd6a1bf1cda477048, sha256: 5abba35a2cb9f9693ea739e0359625483ee43616bc1a6b4b40667088062f6f37)
0010.627 (0) Beginning creation of dump of themes (split every: 400 MB)
0011.680 (0) Total entities for the zip file: 287 directories, 2044 files (0 skipped as non-modified), 44.5 MB
0011.746 (0) Zip: backup_2021-05-10-1433_Mbelkonfigurator_20_b10284f5be11-themes.zip.tmp: 100 files added (on-disk size: 0 KB)
0011.812 (0) Zip: backup_2021-05-10-1433_Mbelkonfigurator_20_b10284f5be11-themes.zip.tmp: 200 files added (on-disk size: 0 KB)
0011.886 (0) Zip: backup_2021-05-10-1433_Mbelkonfigurator_20_b10284f5be11-themes.zip.tmp: 300 files added (on-disk size: 0 KB)
0011.956 (0) Zip: backup_2021-05-10-1433_Mbelkonfigurator_20_b10284f5be11-themes.zip.tmp: 400 files added (on-disk size: 0 KB)
0012.026 (0) Zip: backup_2021-05-10-1433_Mbelkonfigurator_20_b10284f5be11-themes.zip.tmp: 500 files added (on-disk size: 0 KB)
0012.101 (0) Zip: backup_2021-05-10-1433_Mbelkonfigurator_20_b10284f5be11-themes.zip.tmp: 600 files added (on-disk size: 0 KB)
0012.168 (0) Zip: backup_2021-05-10-1433_Mbelkonfigurator_20_b10284f5be11-themes.zip.tmp: 700 files added (on-disk size: 0 KB)
0012.251 (0) Zip: backup_2021-05-10-1433_Mbelkonfigurator_20_b10284f5be11-themes.zip.tmp: 800 files added (on-disk size: 0 KB)
0012.324 (0) Zip: backup_2021-05-10-1433_Mbelkonfigurator_20_b10284f5be11-themes.zip.tmp: 900 files added (on-disk size: 0 KB)
0012.391 (0) Zip: backup_2021-05-10-1433_Mbelkonfigurator_20_b10284f5be11-themes.zip.tmp: 1000 files added (on-disk size: 0 KB)
0012.393 (0) Adding batch to zip file (UpdraftPlus_BinZip): over 1000 files added on this batch (10.1 MB, 2044 files batched, 1001 (1001) added so far); re-opening (prior size: 0 KB)
0013.461 (0) backup_2021-05-10-1433_Mbelkonfigurator_20_b10284f5be11-themes.zip.tmp: size is now: 5.10 MB
0013.527 (0) Zip: backup_2021-05-10-1433_Mbelkonfigurator_20_b10284f5be11-themes.zip.tmp: 1100 files added (on-disk size: 5216.3 KB)
0013.587 (0) Zip: backup_2021-05-10-1433_Mbelkonfigurator_20_b10284f5be11-themes.zip.tmp: 1200 files added (on-disk size: 5216.3 KB)
0013.655 (0) Zip: backup_2021-05-10-1433_Mbelkonfigurator_20_b10284f5be11-themes.zip.tmp: 1300 files added (on-disk size: 5216.3 KB)
0013.732 (0) Zip: backup_2021-05-10-1433_Mbelkonfigurator_20_b10284f5be11-themes.zip.tmp: 1400 files added (on-disk size: 5216.3 KB)
0013.806 (0) Zip: backup_2021-05-10-1433_Mbelkonfigurator_20_b10284f5be11-themes.zip.tmp: 1500 files added (on-disk size: 5216.3 KB)
0013.883 (0) Zip: backup_2021-05-10-1433_Mbelkonfigurator_20_b10284f5be11-themes.zip.tmp: 1600 files added (on-disk size: 5216.3 KB)
0013.962 (0) Zip: backup_2021-05-10-1433_Mbelkonfigurator_20_b10284f5be11-themes.zip.tmp: 1700 files added (on-disk size: 5216.3 KB)
0014.042 (0) Zip: backup_2021-05-10-1433_Mbelkonfigurator_20_b10284f5be11-themes.zip.tmp: 1800 files added (on-disk size: 5216.3 KB)
0014.116 (0) Zip: backup_2021-05-10-1433_Mbelkonfigurator_20_b10284f5be11-themes.zip.tmp: 1900 files added (on-disk size: 5216.3 KB)
0014.196 (0) Zip: backup_2021-05-10-1433_Mbelkonfigurator_20_b10284f5be11-themes.zip.tmp: 2000 files added (on-disk size: 5216.3 KB)
0014.198 (0) Adding batch to zip file (UpdraftPlus_BinZip): over 1000 files added on this batch (34.4 MB, 2044 files batched, 1001 (2002) added so far); re-opening (prior size: 5216.3 KB)
0016.400 (0) backup_2021-05-10-1433_Mbelkonfigurator_20_b10284f5be11-themes.zip.tmp: size is now: 31.90 MB
0017.395 (0) Created themes zip (0) - 32663.4 KB in 6.8 s (4830 KB/s) (sha1: 578ceabc9424218c8c9753178f5bd4c9117602b7, sha256: 9cff8828042c09ef9b1fc5c1b1f2a6fe47c4f78d1b49d58025e39b507b7eeef5)
0017.399 (0) Exclusion option setting (uploads): backup*,*backups,backwpup*,wp-clone,snapshots
0017.402 (0) Looking for candidates to backup in: /home/ezivozaw/www/Upcraft/priceless.moebelkonfigurator.li/wp-content/uploads
0017.404 (0) finding files: 2021: adding to list (1)
0017.406 (0) finding files: salient: adding to list (2)
0017.408 (0) finding files: js_composer: adding to list (3)
0017.410 (0) Beginning creation of dump of uploads (split every: 400 MB)
0017.516 (0) Total entities for the zip file: 5 directories, 202 files (0 skipped as non-modified), 37 MB
0017.595 (0) Zip: backup_2021-05-10-1433_Mbelkonfigurator_20_b10284f5be11-uploads.zip.tmp: 100 files added (on-disk size: 0 KB)
0017.669 (0) Zip: backup_2021-05-10-1433_Mbelkonfigurator_20_b10284f5be11-uploads.zip.tmp: 200 files added (on-disk size: 0 KB)
0018.316 (0) backup_2021-05-10-1433_Mbelkonfigurator_20_b10284f5be11-uploads.zip.tmp: size is now: 37.10 MB
0018.852 (0) Created uploads zip (0) - 37976.7 KB in 1.4 s (26467.9 KB/s) (sha1: 65ceb8e7cb71837037cb3f3becbf01f2f2bd836b, sha256: 929ce395e48ad0558a49ebaed2f0d984a899702256a24519b93cb7d9f1c13789)
0018.857 (0) Beginning backup of other directories found in the content directory (index: 0)
0018.859 (0) Exclusion option setting (others): upgrade,cache,updraft,backup*,*backups,mysql.sql,debug.log
0018.862 (0) Looking for candidates to backup in: /home/ezivozaw/www/Upcraft/priceless.moebelkonfigurator.li/wp-content
0018.865 (0) finding files: languages: adding to list (1)
0018.867 (0) finding files: plugins: skipping: this is the plugins directory
0018.869 (0) finding files: themes: skipping: this is the themes directory
0018.870 (0) finding files: index.php: adding to list (2)
0018.871 (0) finding files: upgrade: skipping: excluded by options
0018.873 (0) finding files: uploads: skipping: this is the uploads directory
0018.874 (0) finding files: updraft: skipping: this is the updraft directory
0018.932 (0) Total entities for the zip file: 3 directories, 121 files (0 skipped as non-modified), 5.3 MB
0019.011 (0) Zip: backup_2021-05-10-1433_Mbelkonfigurator_20_b10284f5be11-others.zip.tmp: 100 files added (on-disk size: 0 KB)
0019.605 (0) backup_2021-05-10-1433_Mbelkonfigurator_20_b10284f5be11-others.zip.tmp: size is now: 1.50 MB
0019.634 (0) Created others zip (0) - 1564.1 KB in 0.8 s (2078.5 KB/s) (sha1: bfa638fba0f6dd45e50953567d54140dd8544a05, sha256: ebf5d408b958e21bbebb344193e9d5bdacdb434793d34b7f1a37ed0bb6d1c7a5)
0019.640 (0) Saving backup status to database (elements: 8)
0019.643 (0) Beginning creation of database dump (WordPress DB)
0019.645 (0) SQL compatibility mode is: ERROR_FOR_DIVISION_BY_ZERO,NO_AUTO_CREATE_USER,NO_ENGINE_SUBSTITUTION
0019.651 (0) Testing potential mysqldump binary: /usr/local/bin/mysqldump
0019.675 (0) Output: /*!40103 SET @OLD_TIME_ZONE=@@TIME_ZONE */;\n/*!40103 SET TIME_ZONE='+00:00' */;\n/*!40014 SET @OLD_UNIQUE_CHECKS=@@UNIQUE_CHECKS, UNIQUE_CHECKS=0 */;\n/*!40014 SET @OLD_FOREIGN_KEY_CHECKS=@@FOREIGN_KEY_CHECKS, FOREIGN_KEY_CHECKS=0 */;\n/*!40101 SET @OLD_SQL_MODE=@@SQL_MODE, SQL_MODE='NO_AUTO_VALUE_ON_ZERO' */;\n/*!40111 SET @OLD_SQL_NOTES=@@SQL_NOTES, SQL_NOTES=0 */;\nDROP TABLE IF EXISTS `wp_options`;\n/*!40101 SET @saved_cs_client     = @@character_set_client */;\n/*!40101 SET character_set_client = utf8 */;\nCRE (truncated - 1238 bytes total)
0019.677 (0) Working binary mysqldump found: /usr/local/bin/mysqldump
0019.693 (0) Table wp_options: Total expected rows (approximate): 237
0019.713 (0) Table wp_options: Rows added in this batch (next record: 851): 236 (uncompressed bytes in this segment=364665) in 0.02 seconds
0019.725 (0) Table wp_options: finishing file(s) (2, 74.4 KB)
0019.731 (0) Table wp_users: Total expected rows (approximate): 4
0019.735 (0) Table wp_users: Rows added in this batch (next record: 4): 4 (uncompressed bytes in this segment=1963) in 0.00 seconds
0019.747 (0) Table wp_users: finishing file(s) (2, 0.9 KB)
0019.751 (0) Table wp_usermeta: Total expected rows (approximate): 70
0019.755 (0) Table wp_usermeta: Rows added in this batch (next record: 71): 70 (uncompressed bytes in this segment=4703) in 0.00 seconds
0019.770 (0) Table wp_usermeta: finishing file(s) (2, 1.7 KB)
0019.774 (0) Table wp_commentmeta: Total expected rows (approximate): 2
0019.778 (0) Table wp_commentmeta: Rows added in this batch (next record: 2): 2 (uncompressed bytes in this segment=822) in 0.00 seconds
0019.789 (0) Table wp_commentmeta: finishing file(s) (2, 0.4 KB)
0019.796 (0) Table wp_comments: Total expected rows (approximate): 1
0019.799 (0) Table wp_comments: Rows added in this batch (next record: 1): 1 (uncompressed bytes in this segment=2148) in 0.00 seconds
0019.808 (0) Table wp_comments: finishing file(s) (2, 0.8 KB)
0019.812 (0) Table wp_links: Total expected rows (approximate): 0
0019.817 (0) Table wp_links: Rows added in this batch (next record: -1): 0 (uncompressed bytes in this segment=1266) in 0.00 seconds
0019.825 (0) Table wp_links: finishing file(s) (2, 0.5 KB)
0019.829 (0) Table wp_postmeta: Total expected rows (approximate): 132
0019.835 (0) Table wp_postmeta: Rows added in this batch (next record: 156): 132 (uncompressed bytes in this segment=39168) in 0.00 seconds
0019.844 (0) Table wp_postmeta: finishing file(s) (2, 4.1 KB)
0019.851 (0) Table wp_posts: Total expected rows (approximate): 29
0019.858 (0) Table wp_posts: Rows added in this batch (next record: 45): 29 (uncompressed bytes in this segment=27312) in 0.01 seconds
0019.871 (0) Table wp_posts: finishing file(s) (2, 4.9 KB)
0019.876 (0) Table wp_term_relationships: Total expected rows (approximate): 1
0019.881 (0) Table wp_term_relationships: Rows added in this batch (next record: 100000): 1 (uncompressed bytes in this segment=692) in 0.00 seconds
0019.895 (0) Table wp_term_relationships: finishing file(s) (2, 0.4 KB)
0019.900 (0) Table wp_term_taxonomy: Total expected rows (approximate): 2
0019.903 (0) Table wp_term_taxonomy: Rows added in this batch (next record: 2): 2 (uncompressed bytes in this segment=939) in 0.00 seconds
0019.917 (0) Table wp_term_taxonomy: finishing file(s) (2, 0.5 KB)
0019.922 (0) Table wp_termmeta: Total expected rows (approximate): 0
0019.927 (0) Table wp_termmeta: Rows added in this batch (next record: -1): 0 (uncompressed bytes in this segment=657) in 0.00 seconds
0019.938 (0) Table wp_termmeta: finishing file(s) (2, 0.4 KB)
0019.943 (0) Table wp_terms: Total expected rows (approximate): 2
0019.946 (0) Table wp_terms: Rows added in this batch (next record: 2): 2 (uncompressed bytes in this segment=739) in 0.00 seconds
0019.965 (0) Table wp_terms: finishing file(s) (2, 0.4 KB)
0019.969 (0) backup_2021-05-10-1433_Mbelkonfigurator_20_b10284f5be11-db-table-wp_options.table.tmpr852.gz (1/12): adding to final database dump
0019.985 (0) backup_2021-05-10-1433_Mbelkonfigurator_20_b10284f5be11-db-table-wp_options.table.gz (2/12): adding to final database dump
0019.987 (0) backup_2021-05-10-1433_Mbelkonfigurator_20_b10284f5be11-db-table-wp_users.table.tmpr5.gz (3/12): adding to final database dump
0019.989 (0) backup_2021-05-10-1433_Mbelkonfigurator_20_b10284f5be11-db-table-wp_users.table.gz (4/12): adding to final database dump
0019.991 (0) backup_2021-05-10-1433_Mbelkonfigurator_20_b10284f5be11-db-table-wp_usermeta.table.tmpr72.gz (5/12): adding to final database dump
0019.993 (0) backup_2021-05-10-1433_Mbelkonfigurator_20_b10284f5be11-db-table-wp_usermeta.table.gz (6/12): adding to final database dump
0019.994 (0) backup_2021-05-10-1433_Mbelkonfigurator_20_b10284f5be11-db-table-wp_commentmeta.table.tmpr3.gz (7/12): adding to final database dump
0019.997 (0) backup_2021-05-10-1433_Mbelkonfigurator_20_b10284f5be11-db-table-wp_commentmeta.table.gz (8/12): adding to final database dump
0019.998 (0) backup_2021-05-10-1433_Mbelkonfigurator_20_b10284f5be11-db-table-wp_comments.table.tmpr2.gz (9/12): adding to final database dump
0020.001 (0) backup_2021-05-10-1433_Mbelkonfigurator_20_b10284f5be11-db-table-wp_comments.table.gz (10/12): adding to final database dump
0020.003 (0) backup_2021-05-10-1433_Mbelkonfigurator_20_b10284f5be11-db-table-wp_links.table.tmpr0.gz (11/12): adding to final database dump
0020.005 (0) backup_2021-05-10-1433_Mbelkonfigurator_20_b10284f5be11-db-table-wp_links.table.gz (12/12): adding to final database dump
0020.008 (0) backup_2021-05-10-1433_Mbelkonfigurator_20_b10284f5be11-db-table-wp_postmeta.table.tmpr157.gz (13/12): adding to final database dump
0020.012 (0) backup_2021-05-10-1433_Mbelkonfigurator_20_b10284f5be11-db-table-wp_postmeta.table.gz (14/12): adding to final database dump
0020.016 (0) backup_2021-05-10-1433_Mbelkonfigurator_20_b10284f5be11-db-table-wp_posts.table.tmpr46.gz (15/12): adding to final database dump
0020.019 (0) backup_2021-05-10-1433_Mbelkonfigurator_20_b10284f5be11-db-table-wp_posts.table.gz (16/12): adding to final database dump
0020.021 (0) backup_2021-05-10-1433_Mbelkonfigurator_20_b10284f5be11-db-table-wp_term_relationships.table.tmpr100001.gz (17/12): adding to final database dump
0020.022 (0) backup_2021-05-10-1433_Mbelkonfigurator_20_b10284f5be11-db-table-wp_term_relationships.table.gz (18/12): adding to final database dump
0020.025 (0) backup_2021-05-10-1433_Mbelkonfigurator_20_b10284f5be11-db-table-wp_term_taxonomy.table.tmpr3.gz (19/12): adding to final database dump
0020.027 (0) backup_2021-05-10-1433_Mbelkonfigurator_20_b10284f5be11-db-table-wp_term_taxonomy.table.gz (20/12): adding to final database dump
0020.030 (0) backup_2021-05-10-1433_Mbelkonfigurator_20_b10284f5be11-db-table-wp_termmeta.table.tmpr0.gz (21/12): adding to final database dump
0020.032 (0) backup_2021-05-10-1433_Mbelkonfigurator_20_b10284f5be11-db-table-wp_termmeta.table.gz (22/12): adding to final database dump
0020.034 (0) backup_2021-05-10-1433_Mbelkonfigurator_20_b10284f5be11-db-table-wp_terms.table.tmpr3.gz (23/12): adding to final database dump
0020.036 (0) backup_2021-05-10-1433_Mbelkonfigurator_20_b10284f5be11-db-table-wp_terms.table.gz (24/12): adding to final database dump
0020.042 (0) backup_2021-05-10-1433_Mbelkonfigurator_20_b10284f5be11-db.gz: finished writing out complete database file (72 KB)
0020.083 (0) Total database tables backed up: 12 (backup_2021-05-10-1433_Mbelkonfigurator_20_b10284f5be11-db.gz, size: 88585, sha1: 891216e51baf11e6eae050ac680840ade4092fc7, sha256: d00d3bcdab30d78a871dc3542a8315bc2f80198d733a5bb64ef4b9b3dc274e0f)
0020.089 (0) backup_2021-05-10-1433_Mbelkonfigurator_20_b10284f5be11-plugins.zip: plugins: This file has not yet been successfully uploaded: will queue
0020.092 (0) backup_2021-05-10-1433_Mbelkonfigurator_20_b10284f5be11-themes.zip: themes: This file has not yet been successfully uploaded: will queue
0020.094 (0) backup_2021-05-10-1433_Mbelkonfigurator_20_b10284f5be11-uploads.zip: uploads: This file has not yet been successfully uploaded: will queue
0020.096 (0) backup_2021-05-10-1433_Mbelkonfigurator_20_b10284f5be11-others.zip: others: This file has not yet been successfully uploaded: will queue
0020.098 (0) backup_2021-05-10-1433_Mbelkonfigurator_20_b10284f5be11-db.gz: db: This file has not yet been successfully uploaded: will queue
0020.099 (0) Saving backup history. Total backup size: 97.6 MB
0020.102 (0) Requesting upload of the files that have not yet been successfully uploaded (5)
0020.105 (0) Cloud backup selection (1/1): s3 with instance (1/1) (last)
0020.106 (0) Beginning dispatch of backup to remote (s3) (instance identifier s-0b37a8cd83c34b86b54a64656ba870a7)
0020.681 (0) Amazon S3: Set region: eu-central-1
0020.684 (0) Amazon S3: upload (eu-central-1): backup_2021-05-10-1433_Mbelkonfigurator_20_b10284f5be11-plugins.zip (chunks: 6) -> s3://wpbackup-share/share/upcraft/priceless.moebelkonfigurator.li/backup_2021-05-10-1433_Mbelkonfigurator_20_b10284f5be11-plugins.zip
0020.825 (0) Amazon S3: chunked upload: got multipart ID: VqvE3X4bsw0Mwq.byja6A_XJbRXufBmMrCR.2AKYZVg1.xYuU0Y_tw0mhs01iQoOJFhHUQ8ZFGCgHWwCxxfD9eAFDWyu8WqtpWcCJjgRq5g8nrNDp2JNpSJi4Tv5Q40q
0021.144 (0) S3 chunked upload: 16.7 % uploaded (1, "887596951dd02f73dbe627124fc81449")
0021.407 (0) S3 chunked upload: 33.3 % uploaded (2, "13a21237056a022ee60c6494404087f1")
0021.668 (0) S3 chunked upload: 50 % uploaded (3, "e3251044ec4cd7dae1d0fcfd65763a91")
0021.921 (0) S3 chunked upload: 66.7 % uploaded (4, "2809a812dda3c975163a87bd52565a9f")
0022.124 (0) S3 chunked upload: 83.3 % uploaded (5, "8809328fd233d4ff60b400cd3af1844e")
0022.306 (0) S3 chunked upload: 100 % uploaded (6, "a2b7d67b823a42d08277ed22230e4b2a")
0022.309 (0) Amazon S3: upload: all chunks uploaded; will now instruct S3 to re-assemble
0022.406 (0) Amazon S3: upload (plugins0): re-assembly succeeded
0022.407 (0) Recording as successfully uploaded: backup_2021-05-10-1433_Mbelkonfigurator_20_b10284f5be11-plugins.zip
0022.410 (0) Deleting local file: backup_2021-05-10-1433_Mbelkonfigurator_20_b10284f5be11-plugins.zip: OK
0022.413 (0) Amazon S3: upload (eu-central-1): backup_2021-05-10-1433_Mbelkonfigurator_20_b10284f5be11-themes.zip (chunks: 7) -> s3://wpbackup-share/share/upcraft/priceless.moebelkonfigurator.li/backup_2021-05-10-1433_Mbelkonfigurator_20_b10284f5be11-themes.zip
0022.438 (0) Amazon S3: chunked upload: got multipart ID: 0uFNfWOhd8fWZHRd6P.lYls6T.fGkEQxBqoaKutBSNRaMoyMUaEnqABLaYYf7bNTcof.FlUhkKfqWc6azf0vI22bk1pIPVhyagOJ6dhYotYiryvVuev6YRnaOlY9aKNY
0022.716 (0) S3 chunked upload: 14.3 % uploaded (1, "1a1d74347812117b18dc59e4bfa504e9")
0022.959 (0) S3 chunked upload: 28.6 % uploaded (2, "fac4c77c3e1eaadad9a664b795285e5f")
0023.159 (0) S3 chunked upload: 42.9 % uploaded (3, "9f6893ccda6d1d2804e671b0bd93ae61")
0023.507 (0) S3 chunked upload: 57.1 % uploaded (4, "019471af8569666e4097cb72db563443")
0023.804 (0) S3 chunked upload: 71.4 % uploaded (5, "f4f530d41a2906d4f60c388a95ffa3d4")
0024.146 (0) S3 chunked upload: 85.7 % uploaded (6, "075076b38decb56dc4d24fd6eba1e968")
0024.317 (0) S3 chunked upload: 100 % uploaded (7, "052b5cdf4a40f97a02300fa714249c46")
0024.321 (0) Amazon S3: upload: all chunks uploaded; will now instruct S3 to re-assemble
0024.427 (0) Amazon S3: upload (themes0): re-assembly succeeded
0024.429 (0) Recording as successfully uploaded: backup_2021-05-10-1433_Mbelkonfigurator_20_b10284f5be11-themes.zip
0024.434 (0) Deleting local file: backup_2021-05-10-1433_Mbelkonfigurator_20_b10284f5be11-themes.zip: OK
0024.436 (0) Amazon S3: upload (eu-central-1): backup_2021-05-10-1433_Mbelkonfigurator_20_b10284f5be11-uploads.zip (chunks: 8) -> s3://wpbackup-share/share/upcraft/priceless.moebelkonfigurator.li/backup_2021-05-10-1433_Mbelkonfigurator_20_b10284f5be11-uploads.zip
0024.465 (0) Amazon S3: chunked upload: got multipart ID: 7Bd4tAqVQjzhL5scnBenPxFlCwyOS.YU5K8Zx6819n93DyTONjCxzVb12uaBC.PKUxBkOAg816vsUHMXF.rSmx9STiJE2dByC2edjghqp2v30FVBav3ODWgSIRrNCHHU
0024.753 (0) S3 chunked upload: 12.5 % uploaded (1, "215f0fa148995f866926bb00b94fc9fd")
0025.195 (0) S3 chunked upload: 25 % uploaded (2, "fd695a11bd4f63963dfb5292f36a67fb")
0025.519 (0) S3 chunked upload: 37.5 % uploaded (3, "685b10d6f3c6903d7ccecd2c35fbbbf9")
0025.763 (0) S3 chunked upload: 50 % uploaded (4, "9523a70b1f35febc43f529a77449bf0c")
0026.061 (0) S3 chunked upload: 62.5 % uploaded (5, "f501d856ebaf6f6a9a56f0d88ece0c70")
0026.307 (0) S3 chunked upload: 75 % uploaded (6, "a5bec241c12dd2c2db502335ee792c91")
0026.574 (0) S3 chunked upload: 87.5 % uploaded (7, "857f8fd9a96b1cedd537789febab9b04")
0026.705 (0) S3 chunked upload: 100 % uploaded (8, "ccd3946c6faed42bd0d112e35f251df4")
0026.708 (0) Amazon S3: upload: all chunks uploaded; will now instruct S3 to re-assemble
0026.823 (0) Amazon S3: upload (uploads0): re-assembly succeeded
0026.825 (0) Recording as successfully uploaded: backup_2021-05-10-1433_Mbelkonfigurator_20_b10284f5be11-uploads.zip
0026.832 (0) Deleting local file: backup_2021-05-10-1433_Mbelkonfigurator_20_b10284f5be11-uploads.zip: OK
0026.834 (0) Amazon S3: upload (eu-central-1): backup_2021-05-10-1433_Mbelkonfigurator_20_b10284f5be11-others.zip (chunks: 1) -> s3://wpbackup-share/share/upcraft/priceless.moebelkonfigurator.li/backup_2021-05-10-1433_Mbelkonfigurator_20_b10284f5be11-others.zip
0026.976 (0) Amazon S3: regular upload: success
0026.978 (0) Recording as successfully uploaded: backup_2021-05-10-1433_Mbelkonfigurator_20_b10284f5be11-others.zip
0026.982 (0) Deleting local file: backup_2021-05-10-1433_Mbelkonfigurator_20_b10284f5be11-others.zip: OK
0026.984 (0) Amazon S3: upload (eu-central-1): backup_2021-05-10-1433_Mbelkonfigurator_20_b10284f5be11-db.gz (chunks: 1) -> s3://wpbackup-share/share/upcraft/priceless.moebelkonfigurator.li/backup_2021-05-10-1433_Mbelkonfigurator_20_b10284f5be11-db.gz
0027.024 (0) Amazon S3: regular upload: success
0027.027 (0) Recording as successfully uploaded: backup_2021-05-10-1433_Mbelkonfigurator_20_b10284f5be11-db.gz
0027.031 (0) Deleting local file: backup_2021-05-10-1433_Mbelkonfigurator_20_b10284f5be11-db.gz: OK
0027.037 (0) Retain: beginning examination of existing backup sets; user setting: retain_files=2, retain_db=2
0027.040 (0) Number of backup sets in history: 3; groups (db): 1
0027.043 (0) Examining (for databases) backup set with group_id=0, nonce=b10284f5be11, datestamp=1620649996 (May 10 2021 12:33:16)
0027.045 (0) This backup set is the backup set just made, so will not be deleted.
0027.046 (0) Examining (for databases) backup set with group_id=0, nonce=32f828fb6dcd, datestamp=1620628786 (May 10 2021 06:39:46)
0027.047 (0) This backup set remains non-empty (f=1/d=1); will retain in history
0027.049 (0) Examining (for databases) backup set with group_id=0, nonce=4c093ea102a8, datestamp=1620019620 (May 03 2021 05:27:00)
0027.052 (0) 1620019620: db: this set includes a database (backup_2021-05-03-0727_Mbelkonfigurator_20_4c093ea102a8-db.gz); db count is now 2
0027.053 (0) 1620019620: db: over retain limit (2); will delete this database
0027.055 (0) Delete file: backup_2021-05-03-0727_Mbelkonfigurator_20_4c093ea102a8-db.gz, service=s3
0027.057 (0) Amazon S3: Delete remote: bucket=wpbackup-share, URI=share/upcraft/priceless.moebelkonfigurator.li/backup_2021-05-03-0727_Mbelkonfigurator_20_4c093ea102a8-db.gz
0027.084 (0) This backup set remains non-empty (f=1/d=0); will retain in history
0027.087 (0) Number of backup sets in history: 3; groups (files): 1
0027.092 (0) Examining (for files) backup set with nonce=b10284f5be11, datestamp=1620649996 (May 10 2021 12:33:16)
0027.093 (0) This backup set is the backup set just made, so will not be deleted.
0027.095 (0) This backup set is the backup set just made, so will not be deleted.
0027.096 (0) This backup set is the backup set just made, so will not be deleted.
0027.097 (0) This backup set is the backup set just made, so will not be deleted.
0027.098 (0) This backup set remains non-empty (f=1/d=1); will retain in history
0027.099 (0) Examining (for files) backup set with nonce=32f828fb6dcd, datestamp=1620628786 (May 10 2021 06:39:46)
0027.102 (0) This backup set remains non-empty (f=1/d=1); will retain in history
0027.105 (0) Examining (for files) backup set with nonce=4c093ea102a8, datestamp=1620019620 (May 03 2021 05:27:00)
0027.107 (0) plugins: over retain limit (2); will delete this file entity
0027.107 (0) themes: over retain limit (2); will delete this file entity
0027.108 (0) uploads: over retain limit (2); will delete this file entity
0027.109 (0) others: over retain limit (2); will delete this file entity
0027.111 (0) Delete file: backup_2021-05-03-0727_Mbelkonfigurator_20_4c093ea102a8-plugins.zip, service=s3
0027.113 (0) Delete file: backup_2021-05-03-0727_Mbelkonfigurator_20_4c093ea102a8-themes.zip, service=s3
0027.115 (0) Delete file: backup_2021-05-03-0727_Mbelkonfigurator_20_4c093ea102a8-uploads.zip, service=s3
0027.117 (0) Delete file: backup_2021-05-03-0727_Mbelkonfigurator_20_4c093ea102a8-others.zip, service=s3
0027.119 (0) Amazon S3: Delete remote: bucket=wpbackup-share, URI=share/upcraft/priceless.moebelkonfigurator.li/backup_2021-05-03-0727_Mbelkonfigurator_20_4c093ea102a8-plugins.zip
0027.184 (0) Amazon S3: Delete remote: bucket=wpbackup-share, URI=share/upcraft/priceless.moebelkonfigurator.li/backup_2021-05-03-0727_Mbelkonfigurator_20_4c093ea102a8-themes.zip
0027.245 (0) Amazon S3: Delete remote: bucket=wpbackup-share, URI=share/upcraft/priceless.moebelkonfigurator.li/backup_2021-05-03-0727_Mbelkonfigurator_20_4c093ea102a8-uploads.zip
0027.320 (0) Amazon S3: Delete remote: bucket=wpbackup-share, URI=share/upcraft/priceless.moebelkonfigurator.li/backup_2021-05-03-0727_Mbelkonfigurator_20_4c093ea102a8-others.zip
0027.348 (0) This backup set is now empty; will remove from history
0027.351 (0) Deleting log file (log.4c093ea102a8.txt)
0027.354 (0) Retain: saving new backup history (sets now: 2) and finishing retain operation
0027.359 (0) Resume backup (b10284f5be11, 0): finish run
0027.361 (0) Decremented the semaphore (fd) by 1
0027.364 (0) Semaphore (fd) unlocked
0027.365 (0) There were no errors in the uploads, so the 'resume' event (1) is being unscheduled
0027.370 (0) No email will/can be sent - the user has not configured an email address.
0027.372 (0) The backup apparently succeeded and is now complete
